^mainwindow.h
D:\Documents\One Drive\OneDrive - University POLITEHNICA of Bucharest\Sem2\Dizertatie\Crypto_Zaruri\Crypto_Zaruri_dev\GeneratedFiles\Debug\moc_mainwindow.cpp
^gamewindow.h
D:\Programs\One Drive\OneDrive - University POLITEHNICA of Bucharest\Sem2\Disertatie\Crypto_Zaruri\Crypto_Zaruri_dev\GeneratedFiles\Debug\moc_gamewindow.cpp
^mainwindow.h
D:\Programs\One Drive\OneDrive - University POLITEHNICA of Bucharest\Sem2\Disertatie\Crypto_Zaruri\Crypto_Zaruri_dev\GeneratedFiles\Debug\moc_mainwindow.cpp
^networkconnection.h
D:\Programs\One Drive\OneDrive - University POLITEHNICA of Bucharest\Sem2\Disertatie\Crypto_Zaruri\Crypto_Zaruri_dev\GeneratedFiles\Debug\moc_networkconnection.cpp
^gamewindow.ui
D:\Programs\One Drive\OneDrive - University POLITEHNICA of Bucharest\Sem2\Disertatie\Crypto_Zaruri\Crypto_Zaruri_dev\GeneratedFiles\ui_gamewindow.h
^mainwindow.ui
D:\Programs\One Drive\OneDrive - University POLITEHNICA of Bucharest\Sem2\Disertatie\Crypto_Zaruri\Crypto_Zaruri_dev\GeneratedFiles\ui_mainwindow.h
^gamewindow.h
D:\Programs\One Drive\OneDrive - University POLITEHNICA of Bucharest\Sem2\Disertatie\Crypto_Zaruri\Crypto_Zaruri_dev\GeneratedFiles\Debug\moc_gamewindow.cpp
^mainwindow.h
D:\Programs\One Drive\OneDrive - University POLITEHNICA of Bucharest\Sem2\Disertatie\Crypto_Zaruri\Crypto_Zaruri_dev\GeneratedFiles\Debug\moc_mainwindow.cpp
^networkconnection.h
D:\Programs\One Drive\OneDrive - University POLITEHNICA of Bucharest\Sem2\Disertatie\Crypto_Zaruri\Crypto_Zaruri_dev\GeneratedFiles\Debug\moc_networkconnection.cpp
^gamewindow.ui
D:\Programs\One Drive\OneDrive - University POLITEHNICA of Bucharest\Sem2\Disertatie\Crypto_Zaruri\Crypto_Zaruri_dev\GeneratedFiles\ui_gamewindow.h
^mainwindow.ui
D:\Programs\One Drive\OneDrive - University POLITEHNICA of Bucharest\Sem2\Disertatie\Crypto_Zaruri\Crypto_Zaruri_dev\GeneratedFiles\ui_mainwindow.h
^gamewindow.h
D:\Programs\One Drive\OneDrive - University POLITEHNICA of Bucharest\Sem2\Disertatie\Crypto_Zaruri\Crypto_Zaruri_dev\GeneratedFiles\Debug\moc_gamewindow.cpp
^mainwindow.h
D:\Programs\One Drive\OneDrive - University POLITEHNICA of Bucharest\Sem2\Disertatie\Crypto_Zaruri\Crypto_Zaruri_dev\GeneratedFiles\Debug\moc_mainwindow.cpp
^networkconnection.h
D:\Programs\One Drive\OneDrive - University POLITEHNICA of Bucharest\Sem2\Disertatie\Crypto_Zaruri\Crypto_Zaruri_dev\GeneratedFiles\Debug\moc_networkconnection.cpp
^gamewindow.ui
D:\Programs\One Drive\OneDrive - University POLITEHNICA of Bucharest\Sem2\Disertatie\Crypto_Zaruri\Crypto_Zaruri_dev\GeneratedFiles\ui_gamewindow.h
^mainwindow.ui
D:\Programs\One Drive\OneDrive - University POLITEHNICA of Bucharest\Sem2\Disertatie\Crypto_Zaruri\Crypto_Zaruri_dev\GeneratedFiles\ui_mainwindow.h
^gamewindow.h
D:\Programs\One Drive\OneDrive - University POLITEHNICA of Bucharest\Sem2\Disertatie\Crypto_Zaruri\Crypto_Zaruri_dev\GeneratedFiles\Debug\moc_gamewindow.cpp
^mainwindow.h
D:\Programs\One Drive\OneDrive - University POLITEHNICA of Bucharest\Sem2\Disertatie\Crypto_Zaruri\Crypto_Zaruri_dev\GeneratedFiles\Debug\moc_mainwindow.cpp
^networkconnection.h
D:\Programs\One Drive\OneDrive - University POLITEHNICA of Bucharest\Sem2\Disertatie\Crypto_Zaruri\Crypto_Zaruri_dev\GeneratedFiles\Debug\moc_networkconnection.cpp
^gamewindow.ui
D:\Programs\One Drive\OneDrive - University POLITEHNICA of Bucharest\Sem2\Disertatie\Crypto_Zaruri\Crypto_Zaruri_dev\GeneratedFiles\ui_gamewindow.h
^mainwindow.ui
D:\Programs\One Drive\OneDrive - University POLITEHNICA of Bucharest\Sem2\Disertatie\Crypto_Zaruri\Crypto_Zaruri_dev\GeneratedFiles\ui_mainwindow.h
^gamewindow.h
D:\Programs\One Drive\OneDrive - University POLITEHNICA of Bucharest\Sem2\Disertatie\Crypto_Zaruri\Crypto_Zaruri_dev\GeneratedFiles\Debug\moc_gamewindow.cpp
^mainwindow.h
D:\Programs\One Drive\OneDrive - University POLITEHNICA of Bucharest\Sem2\Disertatie\Crypto_Zaruri\Crypto_Zaruri_dev\GeneratedFiles\Debug\moc_mainwindow.cpp
^networkconnection.h
D:\Programs\One Drive\OneDrive - University POLITEHNICA of Bucharest\Sem2\Disertatie\Crypto_Zaruri\Crypto_Zaruri_dev\GeneratedFiles\Debug\moc_networkconnection.cpp
^gamewindow.ui
D:\Programs\One Drive\OneDrive - University POLITEHNICA of Bucharest\Sem2\Disertatie\Crypto_Zaruri\Crypto_Zaruri_dev\GeneratedFiles\ui_gamewindow.h
^mainwindow.ui
D:\Programs\One Drive\OneDrive - University POLITEHNICA of Bucharest\Sem2\Disertatie\Crypto_Zaruri\Crypto_Zaruri_dev\GeneratedFiles\ui_mainwindow.h
^gamewindow.h
D:\Programs\One Drive\OneDrive - University POLITEHNICA of Bucharest\Sem2\Disertatie\Crypto_Zaruri\Crypto_Zaruri_dev\GeneratedFiles\Debug\moc_gamewindow.cpp
^mainwindow.h
D:\Programs\One Drive\OneDrive - University POLITEHNICA of Bucharest\Sem2\Disertatie\Crypto_Zaruri\Crypto_Zaruri_dev\GeneratedFiles\Debug\moc_mainwindow.cpp
^networkconnection.h
D:\Programs\One Drive\OneDrive - University POLITEHNICA of Bucharest\Sem2\Disertatie\Crypto_Zaruri\Crypto_Zaruri_dev\GeneratedFiles\Debug\moc_networkconnection.cpp
^gamewindow.ui
D:\Programs\One Drive\OneDrive - University POLITEHNICA of Bucharest\Sem2\Disertatie\Crypto_Zaruri\Crypto_Zaruri_dev\GeneratedFiles\ui_gamewindow.h
^mainwindow.ui
D:\Programs\One Drive\OneDrive - University POLITEHNICA of Bucharest\Sem2\Disertatie\Crypto_Zaruri\Crypto_Zaruri_dev\GeneratedFiles\ui_mainwindow.h
^gamewindow.h
D:\Programs\One Drive\OneDrive - University POLITEHNICA of Bucharest\Sem2\Disertatie\Crypto_Zaruri\Crypto_Zaruri_dev\GeneratedFiles\Debug\moc_gamewindow.cpp
^mainwindow.h
D:\Programs\One Drive\OneDrive - University POLITEHNICA of Bucharest\Sem2\Disertatie\Crypto_Zaruri\Crypto_Zaruri_dev\GeneratedFiles\Debug\moc_mainwindow.cpp
^networkconnection.h
D:\Programs\One Drive\OneDrive - University POLITEHNICA of Bucharest\Sem2\Disertatie\Crypto_Zaruri\Crypto_Zaruri_dev\GeneratedFiles\Debug\moc_networkconnection.cpp
^gamewindow.ui
D:\Programs\One Drive\OneDrive - University POLITEHNICA of Bucharest\Sem2\Disertatie\Crypto_Zaruri\Crypto_Zaruri_dev\GeneratedFiles\ui_gamewindow.h
^mainwindow.ui
D:\Programs\One Drive\OneDrive - University POLITEHNICA of Bucharest\Sem2\Disertatie\Crypto_Zaruri\Crypto_Zaruri_dev\GeneratedFiles\ui_mainwindow.h
