^D:\DOCUMENTS\ONE DRIVE\ONEDRIVE - UNIVERSITY POLITEHNICA OF BUCHAREST\SEM1\RETELE\PROIECT_ZARURI\CRYPTO_ZARURI_DEV\WIN32\DEBUG\GAMEWINDOW.OBJ|D:\DOCUMENTS\ONE DRIVE\ONEDRIVE - UNIVERSITY POLITEHNICA OF BUCHAREST\SEM1\RETELE\PROIECT_ZARURI\CRYPTO_ZARURI_DEV\WIN32\DEBUG\MAIN.OBJ|D:\DOCUMENTS\ONE DRIVE\ONEDRIVE - UNIVERSITY POLITEHNICA OF BUCHAREST\SEM1\RETELE\PROIECT_ZARURI\CRYPTO_ZARURI_DEV\WIN32\DEBUG\MAINWINDOW.OBJ|D:\DOCUMENTS\ONE DRIVE\ONEDRIVE - UNIVERSITY POLITEHNICA OF BUCHAREST\SEM1\RETELE\PROIECT_ZARURI\CRYPTO_ZARURI_DEV\WIN32\DEBUG\MOC_GAMEWINDOW.OBJ|D:\DOCUMENTS\ONE DRIVE\ONEDRIVE - UNIVERSITY POLITEHNICA OF BUCHAREST\SEM1\RETELE\PROIECT_ZARURI\CRYPTO_ZARURI_DEV\WIN32\DEBUG\MOC_MAINWINDOW.OBJ|D:\DOCUMENTS\ONE DRIVE\ONEDRIVE - UNIVERSITY POLITEHNICA OF BUCHAREST\SEM1\RETELE\PROIECT_ZARURI\CRYPTO_ZARURI_DEV\WIN32\DEBUG\MOC_NETWORKCONNECTION.OBJ|D:\DOCUMENTS\ONE DRIVE\ONEDRIVE - UNIVERSITY POLITEHNICA OF BUCHAREST\SEM1\RETELE\PROIECT_ZARURI\CRYPTO_ZARURI_DEV\WIN32\DEBUG\NETWORKCONNECTION.OBJ|D:\DOCUMENTS\ONE DRIVE\ONEDRIVE - UNIVERSITY POLITEHNICA OF BUCHAREST\SEM1\RETELE\PROIECT_ZARURI\CRYPTO_ZARURI_DEV\WIN32\DEBUG\RSA.OBJ
D:\DOCUMENTS\ONE DRIVE\ONEDRIVE - UNIVERSITY POLITEHNICA OF BUCHAREST\SEM1\RETELE\PROIECT_ZARURI\CRYPTO_ZARURI_DEV\DEBUG\CRYPTO_ZARURI.ILK
D:\DOCUMENTS\ONE DRIVE\ONEDRIVE - UNIVERSITY POLITEHNICA OF BUCHAREST\SEM1\RETELE\PROIECT_ZARURI\CRYPTO_ZARURI_DEV\DEBUG\CRYPTO_ZARURI.EXE
D:\DOCUMENTS\ONE DRIVE\ONEDRIVE - UNIVERSITY POLITEHNICA OF BUCHAREST\SEM1\RETELE\PROIECT_ZARURI\CRYPTO_ZARURI_DEV\DEBUG\CRYPTO_ZARURI.PDB
